<?xml version="1.0"?>
<svg xmlns="http://www.w3.org/2000/svg" xmlns:lc="http://www.librecad.org" xmlns:xlink="http://www.w3.org/1999/xlink" width="100.35mm" height="100mm" viewBox="0 0 100.35 100">
    <g lc:layername="0" lc:is_locked="false" lc:is_construction="false" fill="none" stroke="black" stroke-width="1">
        <path d="M0,68.175 A2,2 0 0,0 2,70.175 L50,70.175 L50,74.475 L2,74.475 A2,2 0 0,0 0,76.475 L0,80 A20,20 0 0,0 20,100 L100.35,100 L100.35,0 L20,0 A20,20 0 0,0 0,20 L0,23.525 A2,2 0 0,0 2,25.525 L50,25.525 L50,29.825 L2,29.825 A2,2 0 0,0 0,31.825 L0,68.175 Z "/>
    </g>
</svg>
