<?xml version="1.0"?>
<svg xmlns="http://www.w3.org/2000/svg" xmlns:lc="http://www.librecad.org" xmlns:xlink="http://www.w3.org/1999/xlink" width="19.2mm" height="49.6mm" viewBox="0 0 19.2 49.6">
    <g lc:layername="0" lc:is_locked="false" lc:is_construction="false" fill="none" stroke="black" stroke-width="1">
        <path d="M2.4,47.6 A2,2 0 0,0 4.4,49.6 L14.8,49.6 A2,2 0 0,0 16.8,47.6 L16.8,44.9 L19.2,44.9 L19.2,4.7 L16.8,4.7 L16.8,2 A2,2 0 0,0 14.8,0 L4.4,0 A2,2 0 0,0 2.4,2 L2.4,4.7 L0,4.7 L0,44.9 L2.4,44.9 L2.4,47.6 Z "/>
        <circle cx="5" cy="36.25" r="1.5"/>
        <circle cx="14.2" cy="36.25" r="1.5"/>
        <circle cx="5" cy="13.35" r="1.5"/>
        <circle cx="14.2" cy="13.35" r="1.5"/>
    </g>
</svg>
